{
    "name": "Mon",
    "favouriteNumber": 7,
    "isProgrammer": true,
    "hobbies": [
        "Weightlifting",
        "Reading",
        "Listening to music"
    ],
    "friends": [
        {
            "name": "Roy",
            "isProgrammer": true
        },
        {
            "name": "Marco",
            "isProgrammer": false
        },
        {
            "name": "Alphonse",
            "isProgrammer": true
        }
    ]


}

